[HGEFONT]

Bitmap=devfont.png

Char=" ",1,1,3,14,-1,1
Char="!",5,1,3,14,-1,1
Char=""",9,1,3,14,-1,1
Char="#",13,1,3,14,-1,1
Char="$",17,1,3,14,-1,1
Char="%",21,1,3,14,-1,1
Char="&",25,1,3,14,-1,1
Char="'",29,1,3,14,-1,1
Char="(",33,1,3,14,-1,1
Char=")",37,1,3,14,-1,1
Char="*",41,1,3,14,-1,1
Char="+",45,1,3,14,-1,1
Char=",",49,1,3,14,-1,1
Char="-",53,1,3,14,-1,1
Char=".",57,1,3,14,-1,0
Char="/",61,1,3,14,-1,1
Char="0",65,1,7,14,-1,0
Char="1",73,1,4,14,-1,0
Char="2",78,1,7,14,-1,0
Char="3",86,1,7,14,-1,0
Char="4",94,1,7,14,-1,0
Char="5",102,1,7,14,-1,0
Char="6",110,1,7,14,-1,0
Char="7",118,1,7,14,-1,0
Char="8",1,16,7,14,-1,0
Char="9",9,16,7,14,-1,0
Char=":",17,16,3,14,-1,1
Char=";",21,16,3,14,-1,1
Char="<",25,16,3,14,-1,1
Char="=",29,16,3,14,-1,1
Char=">",33,16,3,14,-1,1
Char="?",37,16,3,14,-1,1
Char="@",41,16,3,14,-1,1
Char="A",45,16,7,14,-1,0
Char="B",53,16,7,14,-1,0
Char="C",61,16,7,14,-1,0
Char="D",69,16,7,14,-1,0
Char="E",77,16,7,14,-1,0
Char="F",85,16,7,14,-1,0
Char="G",93,16,7,14,-1,0
Char="H",101,16,7,14,-1,0
Char="I",109,16,3,14,-1,0
Char="J",113,16,7,14,-1,0
Char="K",1,31,7,14,-1,0
Char="L",9,31,7,14,-1,0
Char="M",17,31,8,14,-1,-1
Char="N",26,31,7,14,-1,0
Char="O",34,31,7,14,-1,0
Char="P",42,31,7,14,-1,0
Char="Q",50,31,8,14,-1,0
Char="R",59,31,7,14,-1,0
Char="S",67,31,7,14,-1,0
Char="T",75,31,7,14,-1,0
Char="U",83,31,7,14,-1,0
Char="V",91,31,7,14,-1,0
Char="W",99,31,8,14,-1,-1
Char="X",108,31,7,14,-1,0
Char="Y",116,31,7,14,-1,0
Char="Z",1,46,7,14,-1,0
Char="[",9,46,3,14,-1,1
Char="\",13,46,3,14,-1,1
Char="]",17,46,3,14,-1,1
Char="^",21,46,3,14,-1,1
Char="_",25,46,3,14,-1,1
Char="`",29,46,3,14,-1,1
Char="a",33,46,7,14,-1,0
Char="b",41,46,7,14,-1,0
Char="c",49,46,7,14,-1,0
Char="d",57,46,7,14,-1,0
Char="e",65,46,7,14,-1,0
Char="f",73,46,7,14,-1,0
Char="g",81,46,7,14,-1,0
Char="h",89,46,7,14,-1,0
Char="i",97,46,3,14,-1,0
Char="j",101,46,7,14,-1,0
Char="k",109,46,7,14,-1,0
Char="l",117,46,7,14,-1,0
Char="m",1,61,8,14,-1,-1
Char="n",10,61,7,14,-1,0
Char="o",18,61,7,14,-1,0
Char="p",26,61,7,14,-1,0
Char="q",34,61,8,14,-1,0
Char="r",43,61,7,14,-1,0
Char="s",51,61,7,14,-1,0
Char="t",59,61,7,14,-1,0
Char="u",67,61,7,14,-1,0
Char="v",75,61,7,14,-1,0
Char="w",83,61,8,14,-1,-1
Char="x",92,61,7,14,-1,0
Char="y",100,61,7,14,-1,0
Char="z",108,61,7,14,-1,0
Char="{",116,61,3,14,-1,1
Char="|",120,61,3,14,-1,1
Char="}",1,76,3,14,-1,1
Char="~",5,76,3,14,-1,1
